{"page":1,"total_results":74881,"total_pages":3745,"results":[{"original_name":"The Big Bang Theory","genre_ids":[35],"name":"The Big Bang Theory","popularity":298.762,"origin_country":["US"],"vote_count":3118,"first_air_date":"2007-09-24","backdrop_path":"\/nGsNruW3W27V6r4gkyc3iiEGsKR.jpg","original_language":"en","id":1418,"vote_average":6.8,"overview":"The Big Bang Theory is centered on five characters living in Pasadena, California: roommates Leonard Hofstadter and Sheldon Cooper; Penny, a waitress and aspiring actress who lives across the hall; and Leonard and Sheldon's equally geeky and socially awkward friends and co-workers, mechanical engineer Howard Wolowitz and astrophysicist Raj Koothrappali. The geekiness and intellect of the four guys is contrasted for comic effect with Penny's social skills and common sense.","poster_path":"\/ooBGRQBdbGzBxAVfExiO8r7kloA.jpg"},{"original_name":"The 100","genre_ids":[18,10765],"name":"The 100","popularity":135.269,"origin_country":["US"],"vote_count":1264,"first_air_date":"2014-03-19","backdrop_path":"\/qYTIuJJ7fIehicAt3bl0vW70Sq6.jpg","original_language":"en","id":48866,"vote_average":6.4,"overview":"Based on the books by Kass Morgan, this show takes place 100 years in the future, when the Earth has been abandoned due to radioactivity. The last surviving humans live on an ark orbiting the planet — but the ark won't last forever. So the repressive regime picks 100 expendable juvenile delinquents to send down to Earth to see if the planet is still habitable.","poster_path":"\/wHIMMLFsk32wIzDmawWkYVbxFCS.jpg"},{"original_name":"Mindhunter","genre_ids":[80,18],"name":"Mindhunter","popularity":104.958,"origin_country":["US"],"vote_count":426,"first_air_date":"2017-10-13","backdrop_path":"\/a906PH7CDmSOdS7kmnAgdWk5mhv.jpg","original_language":"en","id":67744,"vote_average":7.4,"overview":"An agent in the FBI's Elite Serial Crime Unit develops profiling techniques as he pursues notorious serial killers and rapists.","poster_path":"\/r7RIwuceOaDP4KTmU1EFeDniRq4.jpg"},{"original_name":"The Walking Dead","genre_ids":[18,10759,10765],"name":"The Walking Dead","popularity":90.438,"origin_country":["US"],"vote_count":3548,"first_air_date":"2010-10-31","backdrop_path":"\/xVzvD5BPAU4HpleFSo8QOdHkndo.jpg","original_language":"en","id":1402,"vote_average":7.3,"overview":"Sheriff's deputy Rick Grimes awakens from a coma to find a post-apocalyptic world dominated by flesh-eating zombies. He sets out to find his family and encounters many other survivors along the way.","poster_path":"\/yn7psGTZsHumHOkLUmYpyrIcA2G.jpg"},{"original_name":"The Simpsons","genre_ids":[16,35],"name":"The Simpsons","popularity":79.586,"origin_country":["US"],"vote_count":1617,"first_air_date":"1989-12-17","backdrop_path":"\/lnnrirKFGwFW18GiH3AmuYy40cz.jpg","original_language":"en","id":456,"vote_average":7.1,"overview":"Set in Springfield, the average American town, the show focuses on the antics and everyday adventures of the Simpson family; Homer, Marge, Bart, Lisa and Maggie, as well as a virtual cast of thousands. Since the beginning, the series has been a pop culture icon, attracting hundreds of celebrities to guest star. The show has also made name for itself in its fearless satirical take on politics, media and American life in general.","poster_path":"\/yTZQkSsxUFJZJe67IenRM0AEklc.jpg"},{"original_name":"Suits","genre_ids":[18],"name":"Suits","popularity":76.619,"origin_country":["US"],"vote_count":735,"first_air_date":"2011-06-23","backdrop_path":"\/7gRvLvHH78YAdchOghNpH2EysJ2.jpg","original_language":"en","id":37680,"vote_average":7.5,"overview":"While running from a drug deal gone bad, Mike Ross, a brilliant young college-dropout, slips into a job interview with one of New York City's best legal closers, Harvey Specter. Tired of cookie-cutter law school grads, Harvey takes a gamble by hiring Mike on the spot after he recognizes his raw talent and photographic memory. Mike and Harvey are a winning team. Even though Mike is a genius, he still has a lot to learn about law. And while Harvey may seem like an emotionless, cold-blooded shark, Mike's sympathy and concern for their cases and clients will help remind Harvey why he went into law in the first place. Mike's other allies in the office include the firm's best paralegal Rachel and Harvey's no-nonsense assistant Donna to help him serve justice. Proving to be an irrepressible duo and invaluable to the practice, Mike and Harvey must keep their secret from everyone including managing partner Jessica and Harvey's arch nemesis Louis, who seems intent on making Mike's life as difficult as possible.","poster_path":"\/nVz7cZZ59PsCLgiWFC0M0N6AFC3.jpg"},{"original_name":"Game of Thrones","genre_ids":[18,10759,10765],"name":"Game of Thrones","popularity":71.501,"origin_country":["US"],"vote_count":4728,"first_air_date":"2011-04-17","backdrop_path":"\/gX8SYlnL9ZznfZwEH4KJUePBFUM.jpg","original_language":"en","id":1399,"vote_average":8.2,"overview":"Seven noble families fight for control of the mythical land of Westeros. Friction between the houses leads to full-scale war. All while a very ancient evil awakens in the farthest north. Amidst the war, a neglected military order of misfits, the Night's Watch, is all that stands between the realms of men and icy horrors beyond.","poster_path":"\/gwPSoYUHAKmdyVywgLpKKA4BjRr.jpg"},{"original_name":"Better Call Saul","genre_ids":[35,80,18],"name":"Better Call Saul","popularity":70.71,"origin_country":["US"],"vote_count":895,"first_air_date":"2015-02-08","backdrop_path":"\/AlqSvfI6bmxh31iaJTgjNSemF3D.jpg","original_language":"en","id":60059,"vote_average":8.1,"overview":"Six years before Saul Goodman meets Walter White. We meet him when the man who will become Saul Goodman is known as Jimmy McGill, a small-time lawyer searching for his destiny, and, more immediately, hustling to make ends meet. Working alongside, and, often, against Jimmy, is “fixer” Mike Erhmantraut. The series will track Jimmy's transformation into Saul Goodman, the man who puts “criminal” in “criminal lawyer\".","poster_path":"\/zjg4jpK1Wp2kiRvtt5ND0kznako.jpg"},{"original_name":"Supernatural","genre_ids":[18,9648,10765],"name":"Supernatural","popularity":70.271,"origin_country":["US"],"vote_count":1506,"first_air_date":"2005-09-13","backdrop_path":"\/koMUCyGWNtH5LXYbGqjsUwvgtsT.jpg","original_language":"en","id":1622,"vote_average":7.2,"overview":"When they were boys, Sam and Dean Winchester lost their mother to a mysterious and demonic supernatural force. Subsequently, their father raised them to be soldiers. He taught them about the paranormal evil that lives in the dark corners and on the back roads of America ... and he taught them how to kill it. Now, the Winchester brothers crisscross the country in their '67 Chevy Impala, battling every kind of supernatural threat they encounter along the way. ","poster_path":"\/pui1V389cQft0BVFu9pbsYLEW1Q.jpg"},{"original_name":"The Missing","genre_ids":[18,9648],"name":"The Missing","popularity":69.258,"origin_country":["GB"],"vote_count":120,"first_air_date":"2014-10-28","backdrop_path":"\/2hF2RnjVwHvxfhH2lkB9H9FdQHb.jpg","original_language":"en","id":61555,"vote_average":6.8,"overview":"A gripping anthological relationship thriller series exploring the emotional fallout of a child's abduction not only on the family but on the wider community, told over two time frames.","poster_path":"\/w1FDeOGoFS1qsSRHlj2Jzp2P0e1.jpg"},{"original_name":"Law & Order: Special Victims Unit","genre_ids":[80,18],"name":"Law & Order: Special Victims Unit","popularity":68.495,"origin_country":["US"],"vote_count":494,"first_air_date":"1999-09-20","backdrop_path":"\/kOvt2BOOwSAQCT8yo3pM3X2GXjh.jpg","original_language":"en","id":2734,"vote_average":6.2,"overview":"In the criminal justice system, sexually-based offenses are considered especially heinous. In New York City, the dedicated detectives who investigate these vicious felonies are members of an elite squad known as the Special Victims Unit. These are their stories.","poster_path":"\/yzMQBlirydvKp4Zgr5FbXlsrRmw.jpg"},{"original_name":"Marvel's Agents of S.H.I.E.L.D.","genre_ids":[18,10759,10765],"name":"Marvel's Agents of S.H.I.E.L.D.","popularity":65.271,"origin_country":["US"],"vote_count":1124,"first_air_date":"2013-09-24","backdrop_path":"\/qtr5i6hOm6oVzTYl3jOQAYP3oc7.jpg","original_language":"en","id":1403,"vote_average":6.7,"overview":"Agent Phil Coulson of S.H.I.E.L.D. (Strategic Homeland Intervention, Enforcement and Logistics Division) puts together a team of agents to investigate the new, the strange and the unknown around the globe, protecting the ordinary from the extraordinary.","poster_path":"\/xjm6uVktPuKXNILwjLXwVG5d5BU.jpg"},{"original_name":"Doctor Who","genre_ids":[18,10759,10765],"name":"Doctor Who","popularity":60.998,"origin_country":["GB"],"vote_count":1188,"first_air_date":"2005-03-26","backdrop_path":"\/tQkigP2fItdzJWvtIhBvHxgs5yE.jpg","original_language":"en","id":57243,"vote_average":7,"overview":"The Doctor looks and seems human. He's handsome, witty, and could be mistaken for just another man in the street. But he is a Time Lord: a 900 year old alien with 2 hearts, part of a gifted civilization who mastered time travel. The Doctor saves planets for a living – more of a hobby actually, and he's very, very good at it. He's saved us from alien menaces and evil from before time began – but just who is he?","poster_path":"\/3EcYZhBMAvVw4czcDLg9Sd0FuzQ.jpg"},{"original_name":"Friends","genre_ids":[35],"name":"Friends","popularity":60.986,"origin_country":["US"],"vote_count":1235,"first_air_date":"1994-09-22","backdrop_path":"\/efiX8iir6GEBWCD0uCFIi5NAyYA.jpg","original_language":"en","id":1668,"vote_average":7.8,"overview":"The misadventures of a group of friends as they navigate the pitfalls of work, life and love in Manhattan.","poster_path":"\/7buCWBTpiPrCF5Lt023dSC60rgS.jpg"},{"original_name":"Family Guy","id":1434,"name":"Family Guy","popularity":60.976,"vote_count":1205,"vote_average":6.5,"first_air_date":"1999-01-31","poster_path":"\/gBGUL1UTUNmdRQT8gA1LUV4yg39.jpg","genre_ids":[16,35],"original_language":"en","backdrop_path":"\/pH38r4TWTqq7Mcs6XAlwgzNUeJe.jpg","overview":"Sick, twisted, politically incorrect and Freakin' Sweet animated series featuring the adventures of the dysfunctional Griffin family. Bumbling Peter and long-suffering Lois have three kids. Stewie (a brilliant but sadistic baby bent on killing his mother and taking over the world), Meg (the oldest, and is the most unpopular girl in town) and Chris (the middle kid, he's not very bright but has a passion for movies). The final member of the family is Brian - a talking dog and much more than a pet, he keeps Stewie in check whilst sipping Martinis and sorting through his own life issues.","origin_country":["US"]},{"original_name":"Marvel's Iron Fist","genre_ids":[80,18,10759,10765],"name":"Marvel's Iron Fist","popularity":60.492,"origin_country":["US"],"vote_count":610,"first_air_date":"2017-03-17","backdrop_path":"\/xHCfWGlxwbtMeeOnTvxUCZRGnkk.jpg","original_language":"en","id":62127,"vote_average":6.1,"overview":"Danny Rand resurfaces 15 years after being presumed dead. Now, with the power of the Iron Fist, he seeks to reclaim his past and fulfill his destiny.","poster_path":"\/nv4nLXbDhcISPP8C1mgaxKU50KO.jpg"},{"original_name":"Salvation","genre_ids":[18,10765],"name":"Salvation","popularity":56.931,"origin_country":["US"],"vote_count":120,"first_air_date":"2017-07-12","backdrop_path":"\/qvZ5AfgZwPRtCnpklajMWye0iOR.jpg","original_language":"en","id":70513,"vote_average":6.5,"overview":"An MIT grad student and a tech superstar bring a low-level Pentagon official a staggering discovery that an asteroid is just six months away from colliding with Earth.","poster_path":"\/hXCd9FUT7ZjoB390cGioVhEiXOB.jpg"},{"original_name":"The Daily Show with Trevor Noah","genre_ids":[35,10763],"name":"The Daily Show with Trevor Noah","popularity":56.017,"origin_country":["US"],"vote_count":190,"first_air_date":"1996-07-22","backdrop_path":"\/uyilhJ7MBLjiaQXboaEwe44Z0jA.jpg","original_language":"en","id":2224,"vote_average":6.7,"overview":"Trevor Noah and The World's Fakest News Team tackle the biggest stories in news, politics and pop culture.","poster_path":"\/tZlqGXWGzEJNRl9QCCUN8ioSv2D.jpg"},{"original_name":"Arrow","genre_ids":[28,80,18,9648],"name":"Arrow","popularity":55.706,"origin_country":["US"],"vote_count":1915,"first_air_date":"2012-10-10","backdrop_path":"\/dKxkwAJfGuznW8Hu0mhaDJtna0n.jpg","original_language":"en","id":1412,"vote_average":6,"overview":"Spoiled billionaire playboy Oliver Queen is missing and presumed dead when his yacht is lost at sea. He returns five years later a changed man, determined to clean up the city as a hooded vigilante armed with a bow.","poster_path":"\/mo0FP1GxOFZT4UDde7RFDz5APXF.jpg"},{"original_name":"Breaking Bad","genre_ids":[18],"name":"Breaking Bad","popularity":53.86,"origin_country":["US"],"vote_count":2720,"first_air_date":"2008-01-19","backdrop_path":"\/eSzpy96DwBujGFj0xMbXBcGcfxX.jpg","original_language":"en","id":1396,"vote_average":8.3,"overview":"When Walter White, a New Mexico chemistry teacher, is diagnosed with Stage III cancer and given a prognosis of only two years left to live, he becomes filled with a sense of fearlessness and an unrelenting desire to secure his family's financial future at any cost as he enters the dangerous world of drugs and crime.","poster_path":"\/1yeVJox3rjo2jBKrrihIMj7uoS9.jpg"}]}